Chapter 7 Specifying random effects in linear mixed-effects models | Learning Statistical Models Through Simulation in R
…
Then you will merge together the information in the three tables, and calculate the response variable according to the model formula above.

** Generate a sample of stimuli

Let’s randomly generate our 50 items. Create a tibble called item like the one below, where iri are the by-item random intercepts (drawn from a normal distribution with variance \(\omega_{00}^2\) iri_sd^2).  Half of the words are of type NOUN (cond -.5) and half of type VERB (cond ` .5).

items <- tibble(item_id = 1:nitem,
                cond = rep(c(-.5, .5), times = nitem / 2),
                I_0i = rnorm(nitem, 0, sd = omega_00))

items

## # A tibble: 50 x 3
##    item_id  cond  I_0i
##      <int> <dbl> <dbl>
##  1       1  -0.5  14.9
##  2       2   0.5 -86.3
##  3       3  -0.5 -12.8
##  4       4   0.5 -13.9
##  5       5  -0.5  55.6
##  6       6   0.5 -45.9
##  7       7  -0.5 -42.0
##  8       8   0.5 -87.6
##  9       9  -0.5 -97.4
## 10      10   0.5 -85.2
## # … with 40 more rows
…
rep()

Hint for making item random effects

rnorm()

Solution

items <- tibble(item_id = 1:nitem,
                cond = rep(c(-.5, .5), times = nitem / 2),
                I_0i = rnorm(nitem, 0, sd = omega_00))

items

## # A tibble: 50 x 3
##    item_id  cond  I_0i
##      <int> <dbl> <dbl>
##  1       1  -0.5  14.9
##  2       2   0.5 -86.3
##  3       3  -0.5 -12.8
##  4       4   0.5 -13.9
##  5       5  -0.5  55.6
##  6       6   0.5 -45.9
##  7       7  -0.5 -42.0
##  8       8   0.5 -87.6
##  9       9  -0.5 -97.4
## 10      10   0.5 -85.2
## # … with 40 more rows
…
7.4.3 Generate a sample of encounters (trials)

Each trial is an encounter between a particular subject and stimulus. In this experiment, each subject will see each stimulus. Generate a table trials that lists the encounters in the experiments. Note: each participant encounters each stimulus item once. Use the crossing() function to create all possible encounters.

Now apply this example to generate the table below, where err is the residual term, drawn from \(N \sim \left(0, \sigma^2\right)\), where \(\sigma\) is err_sd.

## # A tibble: 5,000 x 3
##    subj_id item_id    err
##      <int>   <int>  <dbl>
##  1       1       1  382. 
##  2       1       2  283. 
##  3       1       3   30.4
##  4       1       4 -282. 
##  5       1       5 -239. 
##  6       1       6   73.4
##  7       1       7  -98.4
##  8       1       8 -189. 
##  9       1       9 -410. 
## 10       1      10  102. 
## # … with 4,990 more rows

Solution

trials <- crossing(subj_id = subjects %>% pull(subj_id),
                   item_id = items %>% pull(item_id)) %>%
  mutate(err = rnorm(nrow(subjects) * nrow(items), mean = 0, sd = sig))

## # A tibble: 5,000 x 3
##    subj_id item_id    err
##      <int>   <int>  <dbl>
##  1       1       1  382. 
##  2       1       2  283. 
##  3       1       3   30.4
##  4       1       4 -282. 
##  5       1       5 -239. 
##  6       1       6   73.4
##  7       1       7  -98.4
##  8       1       8 -189. 
##  9       1       9 -410. 
## 10       1      10  102. 
## # … with 4,990 more rows

7.4.4 Join subjects, items, and trials

Merge the information in subjects, items, and trials to create the full dataset dat_sim, which looks like this:

## # A tibble: 5,000 x 7
##    subj_id item_id  S_0s  I_0i   S_1s  cond    err
##      <int>   <int> <dbl> <dbl>  <dbl> <dbl>  <dbl>
##  1       1       1 -80.0  14.9 -0.763  -0.5  382. 
##  2       1       2 -80.0 -86.3 -0.763   0.5  283. 
##  3       1       3 -80.0 -12.8 -0.763  -0.5   30.4
##  4       1       4 -80.0 -13.9 -0.763   0.5 -282. 
##  5       1       5 -80.0  55.6 -0.763  -0.5 -239. 
##  6       1       6 -80.0 -45.9 -0.763   0.5   73.4
##  7       1       7 -80.0 -42.0 -0.763  -0.5  -98.4
##  8       1       8 -80.0 -87.6 -0.763   0.5 -189. 
##  9       1       9 -80.0 -97.4 -0.763  -0.5 -410. 
## 10       1      10 -80.0 -85.2 -0.763   0.5  102. 
## # … with 4,990 more rows

Solution

dat_sim <- subjects %>%
  inner_join(trials, "subj_id") %>%
  inner_join(items, "item_id") %>%
  arrange(subj_id, item_id) %>%
  select(subj_id, item_id, S_0s, I_0i, S_1s, cond, err)

dat_sim

## # A tibble: 5,000 x 7
##    subj_id item_id  S_0s  I_0i   S_1s  cond    err
##      <int>   <int> <dbl> <dbl>  <dbl> <dbl>  <dbl>
##  1       1       1 -80.0  14.9 -0.763  -0.5  382. 
##  2       1       2 -80.0 -86.3 -0.763   0.5  283. 
##  3       1       3 -80.0 -12.8 -0.763  -0.5   30.4
##  4       1       4 -80.0 -13.9 -0.763   0.5 -282. 
##  5       1       5 -80.0  55.6 -0.763  -0.5 -239. 
##  6       1       6 -80.0 -45.9 -0.763   0.5   73.4
##  7       1       7 -80.0 -42.0 -0.763  -0.5  -98.4
##  8       1       8 -80.0 -87.6 -0.763   0.5 -189. 
##  9       1       9 -80.0 -97.4 -0.763  -0.5 -410. 
## 10       1      10 -80.0 -85.2 -0.763   0.5  102. 
## # … with 4,990 more rows

7.4.5 Create the response variable

Add the response variable Y to dat according to the model formula:

\[Y_{si} = \beta_0 + S_{0s} + I_{0i} + (\beta_1 + S_{1s})X_{i} + e_{si}\]

so that the resulting table (dat_sim2) looks like this:

## # A tibble: 5,000 x 8
##    subj_id item_id     Y  S_0s  I_0i   S_1s  cond    err
##      <int>   <int> <dbl> <dbl> <dbl>  <dbl> <dbl>  <dbl>
##  1       1       1 1078. -80.0  14.9 -0.763  -0.5  382. 
##  2       1       2  957. -80.0 -86.3 -0.763   0.5  283. 
##  3       1       3  698. -80.0 -12.8 -0.763  -0.5   30.4
##  4       1       4  464. -80.0 -13.9 -0.763   0.5 -282. 
##  5       1       5  497. -80.0  55.6 -0.763  -0.5 -239. 
##  6       1       6  787. -80.0 -45.9 -0.763   0.5   73.4
##  7       1       7  540. -80.0 -42.0 -0.763  -0.5  -98.4
##  8       1       8  483. -80.0 -87.6 -0.763   0.5 -189. 
##  9       1       9  173. -80.0 -97.4 -0.763  -0.5 -410. 
## 10       1      10  776. -80.0 -85.2 -0.763   0.5  102. 
## # … with 4,990 more rows

Note: this is the full decomposition table for this model.

Solution

dat_sim2 <- dat_sim %>%
  mutate(Y = b0 + S_0s + I_0i + (S_1s + b1) * cond + err) %>%
  select(subj_id, item_id, Y, everything())

dat_sim2

## # A tibble: 5,000 x 8
##    subj_id item_id     Y  S_0s  I_0i   S_1s  cond    err
##      <int>   <int> <dbl> <dbl> <dbl>  <dbl> <dbl>  <dbl>
##  1       1       1 1078. -80.0  14.9 -0.763  -0.5  382. 
##  2       1       2  957. -80.0 -86.3 -0.763   0.5  283. 
##  3       1       3  698. -80.0 -12.8 -0.763  -0.5   30.4
##  4       1       4  464. -80.0 -13.9 -0.763   0.5 -282. 
##  5       1       5  497. -80.0  55.6 -0.763  -0.5 -239. 
##  6       1       6  787. -80.0 -45.9 -0.763   0.5   73.4
##  7       1       7  540. -80.0 -42.0 -0.763  -0.5  -98.4
##  8       1       8  483. -80.0 -87.6 -0.763   0.5 -189. 
##  9       1       9  173. -80.0 -97.4 -0.763  -0.5 -410. 
## 10       1      10  776. -80.0 -85.2 -0.763   0.5  102. 
## # … with 4,990 more rows
…
